<?xml version="1.0" encoding="UTF-8"?>
<svg width="17px" height="9px" viewBox="0 0 17 9" version="1.1" xmlns="http://www.w3.org/2000/svg" xmlns:xlink="http://www.w3.org/1999/xlink">
    <!-- Generator: sketchtool 52 (66869) - http://www.bohemiancoding.com/sketch -->
    <title>8FEA22B7-6E28-478C-8C3A-8C811795AA66</title>
    <desc>Created with sketchtool.</desc>
    <g id="-English-1440" stroke="none" stroke-width="1" fill="none" fill-rule="evenodd">
        <g id="1440-Main-page-social-(eng)" transform="translate(-951.000000, -37.000000)" fill="#178FFF" fill-rule="nonzero">
            <g id="Choose-language" transform="translate(901.000000, 28.000000)">
                <g id="Group-56">
                    <g id="down-arrow-(1)" transform="translate(50.000000, 9.000000)">
                        <path d="M16.8260598,0.173913043 C16.5917544,-0.0579710145 16.211008,-0.0579710145 15.9767026,0.173913043 L8.5082165,7.57971014 L1.02508632,0.173913043 C0.790780879,-0.0579710145 0.41003453,-0.0579710145 0.175729084,0.173913043 C-0.0585763614,0.405797101 -0.0585763614,0.782608696 0.175729084,1.01449275 L8.06889379,8.82608696 C8.18604651,8.94202899 8.33248741,9 8.49357241,9 C8.64001331,9 8.8010983,8.94202899 8.91825103,8.82608696 L16.8114157,1.01449275 C17.0603653,0.782608696 17.0603653,0.405797101 16.8260598,0.173913043 Z" id="arrow-down"></path>
                    </g>
                </g>
            </g>
        </g>
    </g>
</svg>