<?xml version="1.0" encoding="UTF-8"?>
<svg width="62px" height="62px" viewBox="0 0 62 62" version="1.1" xmlns="http://www.w3.org/2000/svg" xmlns:xlink="http://www.w3.org/1999/xlink">
    <!-- Generator: sketchtool 52 (66869) - http://www.bohemiancoding.com/sketch -->
    <title>1C0EDE78-75E0-445B-B278-0B46F8959039</title>
    <desc>Created with sketchtool.</desc>
    <g id="Symbols" stroke="none" stroke-width="1" fill="none" fill-rule="evenodd">
        <g id="Icons/Choose_sum">
            <g id="Group-17">
                <rect id="Rectangle-2" fill-opacity="0" fill="#FFFFFF" x="0" y="0" width="62" height="62"></rect>
                <g id="Group-14" transform="translate(6.000000, 6.000000)">
                    <g id="selection-(1)" fill="#CFD8DC" fill-rule="nonzero">
                        <g id="Group">
                            <path d="M1.15847305,30.6385405 C1.76113684,30.6385405 2.24973339,30.1485979 2.24973339,29.5442739 L2.24973339,25.1673102 C2.24973339,24.5629862 1.76113684,24.0730437 1.15847305,24.0730437 C0.555809262,24.0730437 0.0672127159,24.5629862 0.0672127159,25.1673102 L0.0672127159,29.5442739 C0.0672127159,30.1485979 0.555809262,30.6385405 1.15847305,30.6385405 Z" id="Shape"></path>
                            <path d="M3.34089142,35.0154015 L2.24963108,35.0154015 L2.24963108,33.921135 C2.24963108,33.316811 1.76103454,32.8268684 1.15837075,32.8268684 C0.55570696,32.8268684 0.0671104134,33.316811 0.0671104134,33.921135 L0.0671104134,36.1096681 C0.0671104134,36.7139921 0.55570696,37.2039347 1.15837075,37.2039347 L3.34078912,37.2039347 C3.9434529,37.2039347 4.43204945,36.7139921 4.43204945,36.1096681 C4.43215175,35.5053441 3.94355521,35.0154015 3.34089142,35.0154015 Z" id="Shape"></path>
                            <path d="M3.34089142,0 L1.15847305,0 C0.555809262,0 0.0672127159,0.489942542 0.0672127159,1.09426656 L0.0672127159,3.2826971 C0.0672127159,3.88702112 0.555809262,4.37696366 1.15847305,4.37696366 C1.76113684,4.37696366 2.24963108,3.88702112 2.24963108,3.2826971 L2.24963108,2.18843054 L3.34089142,2.18843054 C3.94355521,2.18843054 4.43215175,1.698488 4.43215175,1.09416398 C4.43215175,0.489839958 3.94355521,0 3.34089142,0 Z" id="Shape"></path>
                            <path d="M1.15847305,13.1307884 C1.76113684,13.1307884 2.24973339,12.6408459 2.24973339,12.0365218 L2.24973339,7.65966076 C2.24963108,7.05533674 1.76113684,6.5653942 1.15847305,6.5653942 C0.555809262,6.5653942 0.0672127159,7.05533674 0.0672127159,7.65966076 L0.0672127159,12.0366244 C0.0672127159,12.6408459 0.555809262,13.1307884 1.15847305,13.1307884 Z" id="Shape"></path>
                            <path d="M12.0706672,35.0154015 L7.70583046,35.0154015 C7.10316667,35.0154015 6.61457012,35.5053441 6.61457012,36.1096681 C6.61457012,36.7139921 7.10316667,37.2039347 7.70583046,37.2039347 L12.0707695,37.2039347 C12.6734333,37.2039347 13.1620298,36.7139921 13.1620298,36.1096681 C13.1619275,35.5053441 12.6734333,35.0154015 12.0706672,35.0154015 Z" id="Shape"></path>
                            <path d="M1.15847305,21.8846131 C1.76113684,21.8846131 2.24973339,21.3946706 2.24973339,20.7903466 L2.24973339,16.4134855 C2.24973339,15.8091615 1.76113684,15.3192189 1.15847305,15.3192189 C0.555809262,15.3192189 0.0672127159,15.8091615 0.0672127159,16.4134855 L0.0672127159,20.7904492 C0.0672127159,21.3947732 0.555809262,21.8846131 1.15847305,21.8846131 Z" id="Shape"></path>
                            <path d="M36.0776784,6.5653942 C35.4750147,6.5653942 34.9864181,7.05533674 34.9864181,7.65966076 L34.9864181,12.0366244 C34.9864181,12.6409484 35.4750147,13.130891 36.0776784,13.130891 C36.6803422,13.130891 37.1689388,12.6409484 37.1689388,12.0366244 L37.1689388,7.65966076 C37.1689388,7.05533674 36.6803422,6.5653942 36.0776784,6.5653942 Z" id="Shape"></path>
                            <path d="M36.0776784,15.3192189 C35.4750147,15.3192189 34.9864181,15.8091615 34.9864181,16.4134855 L34.9864181,20.7904492 C34.9864181,21.3947732 35.4750147,21.8847157 36.0776784,21.8847157 C36.6803422,21.8847157 37.1689388,21.3947732 37.1689388,20.7904492 L37.1689388,16.4134855 C37.1689388,15.8091615 36.6803422,15.3192189 36.0776784,15.3192189 Z" id="Shape"></path>
                            <path d="M29.530321,0 L25.165382,0 C24.5627182,0 24.0741217,0.489942542 24.0741217,1.09426656 C24.0741217,1.69859058 24.5627182,2.18853312 25.165382,2.18853312 L29.530321,2.18853312 C30.1329848,2.18853312 30.6215814,1.69859058 30.6215814,1.09426656 C30.6215814,0.489942542 30.1329848,0 29.530321,0 Z" id="Shape"></path>
                            <path d="M36.0776784,0 L33.8952601,0 C33.2925963,0 32.8039997,0.489942542 32.8039997,1.09426656 C32.8039997,1.69859058 33.2925963,2.18853312 33.8952601,2.18853312 L34.9865204,2.18853312 L34.9865204,3.2826971 C34.9865204,3.88702112 35.475117,4.37696366 36.0777807,4.37696366 C36.6804445,4.37696366 37.1690411,3.88702112 37.1690411,3.2826971 L37.1690411,1.09426656 C37.1689388,0.489942542 36.6803422,0 36.0776784,0 Z" id="Shape"></path>
                            <path d="M20.8005453,35.0154015 L16.4356062,35.0154015 C15.8329424,35.0154015 15.3443459,35.5053441 15.3443459,36.1096681 C15.3443459,36.7139921 15.8329424,37.2039347 16.4356062,37.2039347 L20.8005453,37.2039347 C21.4032091,37.2039347 21.8918056,36.7139921 21.8918056,36.1096681 C21.8917033,35.5053441 21.4032091,35.0154015 20.8005453,35.0154015 Z" id="Shape"></path>
                            <path d="M20.8005453,0 L16.4356062,0 C15.8329424,0 15.3443459,0.489942542 15.3443459,1.09426656 C15.3443459,1.69859058 15.8329424,2.18853312 16.4356062,2.18853312 L20.8005453,2.18853312 C21.4032091,2.18853312 21.8918056,1.69859058 21.8918056,1.09426656 C21.8918056,0.489942542 21.4032091,0 20.8005453,0 Z" id="Shape"></path>
                            <path d="M12.0706672,0 L7.70583046,0 C7.10316667,0 6.61457012,0.489942542 6.61457012,1.09426656 C6.61457012,1.69859058 7.10316667,2.18853312 7.70583046,2.18853312 L12.0707695,2.18853312 C12.6734333,2.18853312 13.1620298,1.69859058 13.1620298,1.09426656 C13.1620298,0.489942542 12.6734333,0 12.0706672,0 Z" id="Shape"></path>
                        </g>
                    </g>
                    <path d="M20.8095389,37.2380952 L16.4285563,37.2380952 C15.8236774,37.2380952 15.333285,36.7477028 15.333285,36.1428239 C15.333285,35.537945 15.8236774,35.0475526 16.4285563,35.0475526 L20.8095389,35.0475526 C21.4144178,35.0475526 21.9048102,35.537945 21.9048102,36.1428239 C21.9047075,36.7477028 21.4144178,37.2380952 20.8095389,37.2380952 Z M12.0475737,37.2380952 L7.66669385,37.2380952 C7.06181494,37.2380952 6.57142253,36.7477028 6.57142253,36.1428239 C6.57142253,35.537945 7.06181494,35.0475526 7.66669385,35.0475526 L12.0476764,35.0475526 C12.6525553,35.0475526 13.1429477,35.537945 13.1429477,36.1428239 C13.1428451,36.7477028 12.6525553,37.2380952 12.0475737,37.2380952 Z M3.28571127,37.2380952 L1.09527131,37.2380952 C0.490392406,37.2380952 0,36.7477028 0,36.1428239 L0,33.952384 C0,33.3475051 0.490392406,32.8571127 1.09527131,32.8571127 C1.70015022,32.8571127 2.19054263,33.3475051 2.19054263,33.952384 L2.19054263,35.0476553 L3.28581394,35.0476553 C3.89069285,35.0476553 4.38108526,35.5380477 4.38108526,36.1429266 C4.38098258,36.7477028 3.89059017,37.2380952 3.28571127,37.2380952 Z M1.09527131,30.6666727 C0.490392406,30.6666727 0,30.1762803 0,29.5714014 L0,25.1904188 C0,24.5855399 0.490392406,24.0951475 1.09527131,24.0951475 C1.70015022,24.0951475 2.19054263,24.5855399 2.19054263,25.1904188 L2.19054263,29.5714014 C2.19043995,30.1762803 1.70015022,30.6666727 1.09527131,30.6666727 Z M36.1428239,21.9047075 C35.537945,21.9047075 35.0475526,21.4143151 35.0475526,20.8094362 L35.0475526,16.4285563 C35.0475526,15.8236774 35.537945,15.333285 36.1428239,15.333285 C36.7477028,15.333285 37.2380952,15.8236774 37.2380952,16.4285563 L37.2380952,20.8095389 C37.2380952,21.4144178 36.7477028,21.9047075 36.1428239,21.9047075 Z M1.09527131,21.9047075 C0.490392406,21.9047075 0,21.4143151 0,20.8094362 L0,16.4285563 C0,15.8236774 0.490392406,15.333285 1.09527131,15.333285 C1.70015022,15.333285 2.19043995,15.8236774 2.19043995,16.4285563 L2.19043995,20.8095389 C2.19043995,21.4144178 1.70015022,21.9047075 1.09527131,21.9047075 Z M36.1428239,13.1428451 C35.537945,13.1428451 35.0475526,12.6524527 35.0475526,12.0475737 L35.0475526,7.66669385 C35.0475526,7.06181494 35.537945,6.57142253 36.1428239,6.57142253 C36.7477028,6.57142253 37.2380952,7.06181494 37.2380952,7.66669385 L37.2380952,12.0476764 C37.2380952,12.6524527 36.7477028,13.1428451 36.1428239,13.1428451 Z M1.09527131,13.1428451 C0.490392406,13.1428451 0,12.6524527 0,12.0475737 L0,7.66669385 C-1.82393615e-16,7.06181494 0.490392406,6.57142253 1.09527131,6.57142253 C1.70015022,6.57142253 2.19043995,7.06181494 2.19043995,7.66669385 L2.19043995,12.0476764 C2.19043995,12.6524527 1.70015022,13.1428451 1.09527131,13.1428451 Z M36.1428239,4.38098258 C35.537945,4.38098258 35.0475526,3.89059017 35.0475526,3.28571127 L35.0475526,2.19043995 L33.9522813,2.19043995 C33.3474024,2.19043995 32.85701,1.70004754 32.85701,1.09516864 C32.85701,0.490289728 33.3475051,0 33.952384,0 L36.1428239,0 C36.7477028,0 37.2380952,0.490392406 37.2380952,1.09527131 L37.2380952,3.28571127 C37.2380952,3.89059017 36.7477028,4.38098258 36.1428239,4.38098258 Z M1.09527131,4.38098258 C0.490392406,4.38098258 0,3.89059017 0,3.28571127 L0,1.09527131 C-1.82393615e-16,0.490392406 0.490392406,0 1.09527131,0 L3.28571127,0 C3.89059017,0 4.38098258,0.490392406 4.38098258,1.09527131 C4.38098258,1.70015022 3.89059017,2.19054263 3.28571127,2.19054263 L2.19043995,2.19054263 L2.19043995,3.28571127 C2.19043995,3.89059017 1.70015022,4.38098258 1.09527131,4.38098258 Z M29.5714014,2.19043995 L25.1904188,2.19043995 C24.5855399,2.19043995 24.0951475,1.70004754 24.0951475,1.09516864 C24.0951475,0.490289728 24.5855399,0 25.1904188,0 L29.5714014,0 C30.1762803,0 30.6666727,0.490392406 30.6666727,1.09527131 C30.6666727,1.70015022 30.1762803,2.19043995 29.5714014,2.19043995 Z M20.8095389,2.19043995 L16.4285563,2.19043995 C15.8236774,2.19043995 15.333285,1.70004754 15.333285,1.09516864 C15.333285,0.490289728 15.8236774,0 16.4285563,0 L20.8095389,0 C21.4144178,0 21.9048102,0.490392406 21.9048102,1.09527131 C21.9048102,1.70015022 21.4144178,2.19043995 20.8095389,2.19043995 Z M12.0475737,2.19043995 L7.66669385,2.19043995 C7.06181494,2.19043995 6.57142253,1.70004754 6.57142253,1.09516864 C6.57142253,0.490289728 7.06181494,0 7.66669385,0 L12.0476764,0 C12.6525553,0 13.1429477,0.490392406 13.1429477,1.09527131 C13.1429477,1.70015022 12.6525553,2.19043995 12.0475737,2.19043995 Z" id="Shape" stroke="#0E2A4B" fill="#0B284C" fill-rule="nonzero"></path>
                    <path d="M22.1053385,12.2526856 L22.1053385,48.9548753 C22.1053385,49.4022259 22.4679879,49.7648753 22.9153385,49.7648753 C23.1364936,49.7648753 23.3480319,49.6744488 23.5008502,49.514586 L33.8675376,38.6700257 C34.0203559,38.5101629 34.2318942,38.4197364 34.4530493,38.4197364 L48.6450101,38.4197364 C49.0923608,38.4197364 49.4550101,38.057087 49.4550101,37.6097364 C49.4550101,37.3928631 49.3680409,37.1850477 49.2135739,37.0328176 L23.4839023,11.6757668 C23.1652788,11.3617577 22.6524289,11.3654984 22.3384198,11.6841219 C22.1890638,11.8356726 22.1053385,12.0399067 22.1053385,12.2526856 Z" id="Path-5" stroke="#178FFF" stroke-width="3.43" fill="#FFFFFF"></path>
                </g>
            </g>
        </g>
    </g>
</svg>