<?xml version="1.0" encoding="UTF-8"?>
<svg width="50px" height="50px" viewBox="-2 -2 45 45" version="1.1" xmlns="http://www.w3.org/2000/svg" xmlns:xlink="http://www.w3.org/1999/xlink">
    <!-- Generator: sketchtool 52 (66869) - http://www.bohemiancoding.com/sketch -->
    <title>1500347B-B8EE-46B1-A172-3425333E7FA9</title>
    <desc>Created with sketchtool.</desc>
    <g id="-English-1440" stroke="none" stroke-width="1" fill="none" fill-rule="evenodd">
        <g id="1440-Main-page-social-(eng)">
            <rect></rect>
            <g id="Reviews" >
                <g id="Group-33">
                    <g id="Group-25">
                        <g id="UI/Icon/Facebook-page">
                            <g id="Group-30">
                                <g id="facebook" transform="translate(15.238095, 11.428571)" fill="#178FFF" fill-rule="nonzero">
                                    <path d="M5.95238095,6.54761905 L5.95238095,4.16666667 C5.95238095,3.50952381 6.48571429,2.97619048 7.14285714,2.97619048 L8.33333333,2.97619048 L8.33333333,0 L5.95238095,0 C3.9797619,0 2.38095238,1.59880952 2.38095238,3.57142857 L2.38095238,6.54761905 L0,6.54761905 L0,9.52380952 L2.38095238,9.52380952 L2.38095238,19.047619 L5.95238095,19.047619 L5.95238095,9.52380952 L8.33333333,9.52380952 L9.52380952,6.54761905 L5.95238095,6.54761905 Z" id="Shape"></path>
                                </g>
                                <circle id="Oval-3" stroke="#178FFF" stroke-width="1.9" cx="20" cy="20" r="20"></circle>
                            </g>
                        </g>
                    </g>
                </g>
            </g>
        </g>
    </g>
</svg>