<?xml version="1.0" encoding="UTF-8"?>
<svg width="42px" height="42px" viewBox="0 0 42 42" version="1.1" xmlns="http://www.w3.org/2000/svg" xmlns:xlink="http://www.w3.org/1999/xlink">
    <!-- Generator: sketchtool 52 (66869) - http://www.bohemiancoding.com/sketch -->
    <title>A0288FDA-F139-49CF-9DD9-1E96BBA3097F</title>
    <desc>Created with sketchtool.</desc>
    <g id="Symbols" stroke="none" stroke-width="1" fill="none" fill-rule="evenodd">
        <g id="UI/Icon/Instagram" fill="#178FFF">
            <g id="Instagram">
                <path d="M0,21 C0,9.40201968 9.40201968,0 21,0 C32.5979803,0 42,9.40201968 42,21 C42,32.5979803 32.5979803,42 21,42 C9.40201968,42 0,32.5979803 0,21 Z M21.00105,9.8 C17.959285,9.8 17.5775477,9.81330014 16.3828686,9.86766737 C15.1905228,9.92226794 14.3766477,10.1110366 13.6645069,10.3880061 C12.9278659,10.6740758 12.3029927,11.0567464 11.6804529,11.6795196 C11.0574464,12.3020594 10.6747758,12.9269326 10.3877728,13.6633402 C10.1101032,14.3757143 9.92110126,15.1898228 9.86743404,16.3817019 C9.81400015,17.576381 9.8,17.9583516 9.8,21.0001167 C9.8,24.0418817 9.81353347,24.4224523 9.86766737,25.6171314 C9.92250128,26.8094772 10.1112699,27.6233523 10.3880061,28.3354931 C10.6743091,29.0721341 11.0569798,29.6970073 11.6797529,30.3195471 C12.3020594,30.9425536 12.9269326,31.3261576 13.6631069,31.6122272 C14.3757143,31.8891968 15.1898228,32.0779654 16.3819352,32.132566 C17.5766143,32.1869332 17.9581183,32.2002333 20.99965,32.2002333 C24.0416484,32.2002333 24.422219,32.1869332 25.6168981,32.132566 C26.8092438,32.0779654 27.6240523,31.8891968 28.3366598,31.6122272 C29.0730674,31.3261576 29.6970073,30.9425536 30.3193137,30.3195471 C30.9423202,29.6970073 31.3249909,29.0721341 31.6119939,28.3357264 C31.8873301,27.6233523 32.076332,26.8092438 32.1323326,25.6173648 C32.1859999,24.4226857 32.2,24.0418817 32.2,21.0001167 C32.2,17.9583516 32.1859999,17.5766143 32.1323326,16.3819352 C32.076332,15.1895895 31.8873301,14.3757143 31.6119939,13.6635736 C31.3249909,12.9269326 30.9423202,12.3020594 30.3193137,11.6795196 C29.6963073,11.0565131 29.0733008,10.6738424 28.3359597,10.3880061 C27.6219523,10.1110366 26.8076105,9.92226794 25.6152647,9.86766737 C24.4205856,9.81330014 24.0402483,9.8 20.99755,9.8 L21.00105,9.8 Z" id="Combined-Shape"></path>
                <path d="M19.9963062,11.8183544 C20.2945093,11.8178877 20.6272461,11.8183544 21.00105,11.8183544 C23.9914812,11.8183544 24.3459182,11.8290878 25.5268305,11.882755 C26.6188419,11.9326889 27.2115147,12.1151574 27.6063188,12.268459 C28.1289909,12.4714612 28.5016281,12.7141304 28.8933989,13.1061344 C29.285403,13.4981385 29.5280722,13.8714757 29.731541,14.3941479 C29.8848426,14.7884853 30.0675445,15.3811581 30.117245,16.4731695 C30.1709122,17.6538485 30.182579,18.0085188 30.182579,20.99755 C30.182579,23.9865811 30.1709122,24.3412515 30.117245,25.5219304 C30.0673111,26.6139418 29.8848426,27.2066147 29.731541,27.6009521 C29.5285388,28.1236242 29.285403,28.4957947 28.8933989,28.8875655 C28.5013948,29.2795696 28.1292243,29.5222388 27.6063188,29.7252409 C27.2119814,29.8792425 26.6188419,30.0612444 25.5268305,30.1111782 C24.3461515,30.1648455 23.9914812,30.1765123 21.00105,30.1765123 C18.0103855,30.1765123 17.6559485,30.1648455 16.4752695,30.1111782 C15.3832582,30.0607777 14.7905853,29.8783091 14.3955479,29.7250076 C13.8728758,29.5220054 13.4995385,29.2793362 13.1075345,28.8873322 C12.7155304,28.4953281 12.4728612,28.1229242 12.2693924,27.6000188 C12.1160908,27.2056813 11.9333889,26.6130085 11.8836884,25.5209971 C11.8300211,24.3403181 11.8192877,23.9856478 11.8192877,20.9947499 C11.8192877,18.0038521 11.8300211,17.6510484 11.8836884,16.4703695 C11.9336222,15.3783581 12.1160908,14.7856853 12.2693924,14.3908812 C12.4723945,13.868209 12.7155304,13.4948718 13.1075345,13.1028677 C13.4995385,12.7108637 13.8728758,12.4681945 14.3955479,12.2647257 C14.790352,12.1107241 15.3832582,11.9287222 16.4752695,11.878555 C17.5084803,11.8318878 17.9088845,11.8178877 19.9963062,11.8155543 L19.9963062,11.8183544 Z M26.979579,13.6780404 C26.2375712,13.6780404 25.635565,14.2793467 25.635565,15.0215877 C25.635565,15.7635955 26.2375712,16.3656017 26.979579,16.3656017 C27.7215867,16.3656017 28.323593,15.7635955 28.323593,15.0215877 C28.323593,14.27958 27.7215867,13.6775737 26.979579,13.6775737 L26.979579,13.6780404 Z M21.00105,15.2483901 C17.8246503,15.2483901 15.2493234,17.8237169 15.2493234,21.0001167 C15.2493234,24.1765164 17.8246503,26.7506766 21.00105,26.7506766 C24.1774498,26.7506766 26.7518432,24.1765164 26.7518432,21.0001167 C26.7518432,17.8237169 24.1772164,15.2483901 21.0008167,15.2483901 L21.00105,15.2483901 Z" id="Combined-Shape"></path>
                <path d="M21.00105,17.2667444 C23.0628048,17.2667444 24.7344222,18.9381285 24.7344222,21.0001167 C24.7344222,23.0618715 23.0628048,24.7334889 21.00105,24.7334889 C18.9390619,24.7334889 17.2676778,23.0618715 17.2676778,21.0001167 C17.2676778,18.9381285 18.9390619,17.2667444 21.00105,17.2667444 L21.00105,17.2667444 Z" id="Shape"></path>
            </g>
        </g>
    </g>
</svg>