<?xml version="1.0" encoding="UTF-8"?>
<svg width="1015px" height="375px" viewBox="0 0 1015 375" version="1.1" xmlns="http://www.w3.org/2000/svg" xmlns:xlink="http://www.w3.org/1999/xlink">
    <!-- Generator: sketchtool 51.3 (57544) - http://www.bohemiancoding.com/sketch -->
    <title>28774A5B-3D07-43EE-9B27-8AC7297E7E0A</title>
    <desc>Created with sketchtool.</desc>
    <defs>
        <linearGradient x1="108.472453%" y1="30.3318401%" x2="8.25124817%" y2="106.170835%" id="linearGradient-1">
            <stop stop-color="#DDE6F6" offset="0%"></stop>
            <stop stop-color="#A9BEE4" offset="100%"></stop>
        </linearGradient>
        <linearGradient x1="121.10826%" y1="3.58510886%" x2="39.6194938%" y2="103.799721%" id="linearGradient-2">
            <stop stop-color="#050176" offset="0%"></stop>
            <stop stop-color="#0083DF" offset="100%"></stop>
        </linearGradient>
        <linearGradient x1="50%" y1="0%" x2="50%" y2="100%" id="linearGradient-3">
            <stop stop-color="#33C2FF" offset="0%"></stop>
            <stop stop-color="#178FFF" offset="100%"></stop>
        </linearGradient>
        <linearGradient x1="50%" y1="0%" x2="50%" y2="100%" id="linearGradient-4">
            <stop stop-color="#1E9BFF" offset="0%"></stop>
            <stop stop-color="#127DE0" offset="100%"></stop>
        </linearGradient>
        <linearGradient x1="50%" y1="0%" x2="50%" y2="100%" id="linearGradient-5">
            <stop stop-color="#A8E5FF" offset="0%"></stop>
            <stop stop-color="#178FFF" offset="100%"></stop>
        </linearGradient>
    </defs>
    <g id="New-admin-panel" stroke="none" stroke-width="1" fill="none" fill-rule="evenodd">
        <g id="1440-Maintenance-mode" transform="translate(-273.000000, -586.000000)">
            <g id="illustration/maintenance" transform="translate(273.000000, 586.000000)">
                <path d="M409.442073,90.1876041 C407.190818,83.7443953 404.745276,78.0592531 402.105448,73.1321776 C400.58427,70.2929945 398.868806,68.2118781 396.959056,66.8888282 L399.625987,75.9400415 C401.721613,78.7447265 403.410609,81.6700339 404.692973,84.7159637 C405.975338,87.7618935 407.685894,92.911353 409.824641,100.164342 L409.442073,90.1876041 Z" id="Path-40" fill="url(#linearGradient-1)"></path>
                <path d="M207.233065,282.202229 C216.01567,283.943788 221.980835,285.846336 225.12856,287.909872 C255.163913,307.599978 304.2022,300.647747 342.258226,293.515915 C380.314251,286.384083 386.963129,270.215283 392.561956,260.003685 C410.535227,227.222563 407.926682,154.410253 407.926682,132.662524 C407.926682,110.914795 402.896804,75.4681061 397.068148,64.0984055 C393.182377,56.5186052 383.369772,53.17188 367.630332,54.0582301 C366.668793,54.7604349 366.259224,55.2171422 366.401628,55.4283521 C366.544031,55.639562 367.33432,55.7475324 368.772495,55.7522633 C378.772148,53.9859405 385.803288,55.4444753 389.865917,60.1278677 C395.959861,67.1529564 404.063937,80.0152102 404.063937,132.662524 C404.063937,185.309838 404.770676,225.600379 389.865917,254.092679 C374.961159,282.584979 364.718512,288.379054 322.001253,293.515915 C279.283993,298.652776 260.684689,300.323139 229.991759,284.944998 C223.987171,281.936507 216.400939,279.26929 207.233065,276.943346 C206.532445,278.093231 206.182134,278.971281 206.182134,279.577497 C206.182134,280.183712 206.532445,281.058622 207.233065,282.202229 Z" id="Path-22" fill="url(#linearGradient-2)"></path>
                <path d="M352.469121,54.9269772 C351.562947,55.6978476 355.542596,57.7333431 356.995536,60.8745183 C358.448477,64.0156934 357.72457,67.7611682 358.405535,67.7611682 C359.0865,67.7611682 369.936545,60.8632213 367.979994,55.6978476 C366.023443,50.5324739 353.375294,54.1561068 352.469121,54.9269772 Z" id="Path-21" fill="url(#linearGradient-3)"></path>
                <path d="M199.653621,273.86675 C200.028458,273.208948 210.539016,270.585956 208.159863,274.825891 C205.780709,279.065825 208.159863,284.79927 208.159863,286.149244 C208.159863,287.499218 199.653621,286.751274 199.338447,285.62979 C199.023273,284.508307 199.278784,274.524551 199.653621,273.86675 Z" id="Path-23" fill="url(#linearGradient-3)"></path>
                <path d="M561.157798,69.5223832 C562.400874,70.4283905 555.370577,81.4437098 552.831364,81.4437098 C548.552391,81.4437098 540.553032,71.4307033 545.290708,66.8985197 C550.028384,62.3663361 557.661732,66.9743005 561.157798,69.5223832 Z" id="Path-24" fill="url(#linearGradient-4)"></path>
                <path d="M563.434164,74.904447 C563.434164,74.904447 561.24756,73.8592977 556.874352,71.7689992" id="Path-25" stroke="#0B284C" stroke-width="2" stroke-linecap="round"></path>
                <path d="M496.850709,95.6347554 C496.850709,95.6347554 502.751781,87.278846 508.165683,82.0522589 C511.774951,78.5678675 515.682967,75.681401 519.88973,73.3928595 L516.32126,82.8412997 C514.107635,80.3987226 511.793546,80.9562251 509.378995,84.5138074 C504.190732,92.1581574 499.480309,99.7867375 495.247727,107.399548 C496.316381,99.5563528 496.850709,95.6347554 496.850709,95.6347554 Z" id="Path-38" fill="url(#linearGradient-1)"></path>
                <path d="M791.961308,65.568772 C1176.28483,15.5529834 630.789403,-24.8055568 400.229825,18.1670343 C169.670248,61.1396255 371.793136,195.065159 84.2762891,187.445746 C-165.16307,180.835416 203.471657,361.42112 431.274542,374.052002 C659.077426,386.682883 1144.60204,221.613707 981.858586,237.213578 C673.506554,266.770846 477.004531,273.339595 604.749475,204.008407 C732.494418,134.677219 407.637784,115.584561 791.961308,65.568772 Z" id="Path-45" fill-opacity="0.142266757" fill="#D9E3F5"></path>
                <path d="M559.434164,80.904447 C559.434164,80.904447 557.482276,79.4153158 553.578498,76.4370532" id="Path-25" stroke="#0B284C" stroke-width="2" stroke-linecap="round"></path>
                <path d="M546.522795,67.2774197 C536.018472,62.3089522 527.206128,63.9238268 520.085764,72.1220433 C509.405217,84.4193681 492.265282,180.784554 550.709378,263.343995 C566.168231,285.181517 617.006981,274.379871 669.821622,267.015602 C675.442182,266.231893 690.955067,265.11384 696.169645,264.864336 C712.549053,264.080627 854.569678,244.223721 858.495285,231.646108 C862.420892,219.068495 828.962451,224.800888 811.76845,214.596462 C804.691668,210.396479 805.130602,201.071232 801.651942,195.891673 C800.464546,194.123696 797.249524,192.888492 792.006876,192.186061 L792.006876,198.030352 C794.563578,198.329944 796.23394,199.025705 797.017963,200.117636 C803.626516,209.321553 801.651942,214.596462 807.576052,219.713978 C815.161851,226.266937 854.959489,224.150767 853.375671,231.646108 C852.123737,237.570824 772.183619,253.719778 686.37934,260.328952 C632.373235,264.488835 616.811958,278.360356 574.221931,269.571738 C534.045604,261.281196 504.676575,173.643746 515.947907,88.6954954 C517.861439,74.2738478 527.668918,69.3034062 535.233779,67.2774197 C537.819787,66.5848469 540.891975,67.1711136 544.450343,69.0362199 L546.522795,67.2774197 Z" id="Path-26" fill="url(#linearGradient-2)"></path>
                <path d="M783.363739,187.562693 C784.706355,186.623104 795.305676,183.029752 793.682273,186.623104 C792.05887,190.216457 792.605115,201.92158 792.05887,204.277612 C791.512626,206.633645 782.021124,206.633645 781.997321,205.374136 C781.973519,204.114627 782.021124,188.502282 783.363739,187.562693 Z" id="Path-27" fill="#178FFF"></path>
                <path d="M454.750816,43.8458825 C455.079742,46.5164557 455.543288,48.6104741 456.141452,50.1279375 C456.739617,51.6454009 457.969495,53.8473717 459.831086,56.7338499 L453.934019,74.9642954 L444.553337,74.9642954 C441.847501,62.8106651 440.494583,56.7338499 440.494583,56.7338499 C440.494583,56.7338499 446.173297,51.6064069 446.804992,50.5355557 C447.226122,49.8216549 447.067358,48.5910831 446.3287,46.8438404 L454.750816,43.8458825 Z" id="Path-44" fill="url(#linearGradient-1)"></path>
                <polygon id="Path-31" fill="url(#linearGradient-1)" points="500.47409 285.610861 501.75262 297.747697 496.969269 296.583551 496.000524 282.687425"></polygon>
                <path d="M501.15705,290.339823 C502.414804,291.342865 502.414804,293.665921 506.171863,298.85739 C509.928923,304.04886 509.931176,302.406964 512.858544,306.508838 C513.274517,307.091705 512.555594,308.570703 512.858544,309.314356 C514.509104,313.365981 515.353162,317.235607 513.648903,317.671326 C510.311714,318.524527 505.029138,313.80713 503.630325,310.910068 C503.105425,309.822955 502.397467,307.233416 501.15705,305.146722 C497.975324,299.794256 496.206554,298.070583 496.206554,296.366359 C496.206554,294.067414 495.609938,292.044047 496.206554,291.342865 C496.803171,290.641683 496.803171,294.728032 500.051021,294.728032 C503.298871,294.728032 499.899297,289.336782 501.15705,290.339823 Z" id="Path-28" fill="#98A6B4"></path>
                <path d="M448.754735,281.367112 C450.795267,280.856691 451.971396,280.172823 452.283123,279.315507 C452.59485,278.458192 452.917118,276.648732 453.249928,273.887127 L456.603451,274.123912 L455.194036,283.733234 L447.522178,288.039211 C447.322559,286.560338 447.322559,285.28061 447.522178,284.200027 C447.721798,283.119443 448.13265,282.175138 448.754735,281.367112 Z" id="Path-30" fill="url(#linearGradient-1)"></path>
                <path d="M455.337542,281.65574 C455.643147,281.953398 455.643147,283.976765 455.337542,284.708269 C455.031937,285.439774 449.436879,289.112656 446.627416,291.178322 C443.817952,293.243988 444.395764,295.29328 439.526418,296.926673 C434.657072,298.560067 430.990343,298.473909 429.490872,296.926673 C428.450345,295.853001 430.652013,293.412125 433.426883,291.178322 C434.895605,289.995983 438.179331,289.224468 440.541692,287.550484 C446.184329,283.552074 448.223448,280.937593 449.436879,279.833535 C450.650311,278.729476 447.223176,284.283466 448.598775,284.708269 C450.173508,285.194568 455.031937,281.358082 455.337542,281.65574 Z" id="Path-29" fill="#98A6B4"></path>
                <path d="M431.005357,140.587643 C428.050437,164.385341 428.360525,186.059638 431.935622,205.610534 C434.697327,220.713284 439.958252,225.349478 445.422853,243.933066 C450.162079,260.049859 450.930183,276.152956 451.413011,276.152956 C451.895839,276.152956 456.421191,278.67968 457.142643,278.175749 C457.864096,277.671818 457.582995,255.231116 455.717677,243.100002 C453.852358,230.968887 449.151286,226.475817 448.482578,221.854943 C447.217765,213.114881 448.194576,198.807285 451.413011,178.932155 C460.561685,192.931244 469.090682,207.23884 477,221.854943 C481.202008,229.620085 487.573197,246.095249 490.960597,257.742032 C494.347998,269.388816 494.344186,283.168144 494.344186,283.903125 C494.344186,284.638106 500.544436,287.117964 502.001598,286.281792 C503.45876,285.44562 499.145432,252.805812 490.960597,225.561782 C484.615047,204.43999 481.318193,203.319077 475.297494,179.936653 C471.499608,165.18691 468.908957,150.057262 467.525541,134.547707 C453.998146,131.324837 444.154124,130.222846 437.993476,131.241732 C431.832828,132.260619 429.503455,135.375922 431.005357,140.587643 Z" id="Path-32" fill="#0B284C"></path>
                <path d="M442.030545,54.5617308 C440.560435,55.3587696 434.92628,56.7814192 432.298185,62.8530185 C425.477007,78.6117514 419.214613,99.8192735 418.047906,101.13731 C417.469993,101.790182 416.009437,101.10253 413.666241,99.0743531 L411.746423,111.92395 C413.504102,117.134372 415.604596,118.649527 418.047906,116.469417 C425.408881,109.901386 433.366983,91.4954118 434.221725,91.4954118 C435.076466,91.4954118 434.06298,105.939335 432.298185,118.197513 C430.533389,130.455691 423.465194,139.024444 426.900583,142.347675 C429.181134,144.553771 437.346221,134.802797 437.346221,133.665872 C437.346221,132.528947 439.31555,144.531807 447.963477,144.531807 C456.611403,144.531807 460.798741,134.317724 460.798741,134.317724 C460.798741,134.317724 458.384917,144.027748 471.597295,145.034005 C475.249456,145.312154 473.75413,132.822785 471.597295,123.854589 C466.989659,104.695877 467.916994,86.5088009 468.701375,85.558013 C470.075947,83.8918251 481.007638,116.660021 484.174202,117.428767 C486.285244,117.941264 488.41006,115.794236 490.54865,110.987681 L492.572704,99.8192735 C489.706047,102.16979 487.683234,102.609136 486.504265,101.13731 C479.928044,92.9275501 477.555541,70.5025057 472.119223,61.0709426 C470.559818,58.3655029 466.332646,55.4597798 459.437708,52.3537734 C455.398471,63.257135 451.78158,68.845713 448.587036,69.1195076 C444.68737,69.4537361 443.500655,53.7646921 442.030545,54.5617308 Z" id="Path-36" fill="url(#linearGradient-5)"></path>
                <path d="M495.949319,92.6638191 C494.623722,92.6638191 491.618087,99.3454298 488.233709,100.394511 C485.977458,101.093899 485.435739,105.490629 486.608554,113.584701 C488.565108,117.254811 490.287602,117.80421 491.776035,115.232899 C494.008685,111.375932 494.623722,112.12755 495.949319,109.093844 C497.274915,106.060139 497.274915,92.6638191 495.949319,92.6638191 Z" id="Path-37" fill="url(#linearGradient-2)"></path>
                <path d="M438.296465,132.272773 C440.310557,125.352192 441.693625,115.534039 442.445669,102.818312 C443.020509,93.0987821 442.68288,77.2304372 441.432782,55.2132774 L436.552398,57.3905449 C438.516821,73.8578104 439.499033,89.0003995 439.499033,102.818312 C439.499033,113.961142 438.516821,123.779296 436.552398,132.272773 L438.296465,132.272773 Z" id="Path-33" fill="#98A6B4"></path>
                <path d="M460.571336,52.5185261 C459.538309,57.1810446 458.976021,63.8224765 458.884473,72.4428218 C458.694877,90.2956536 458.976021,110.127399 459.727905,131.938058 L461.729091,133.116392 C461.126333,110.946104 461.126333,93.2037289 461.729091,79.8892682 C462.303171,67.2082718 463.480009,58.9551894 465.259604,55.130021 L460.571336,52.5185261 Z" id="Path-34" fill="#98A6B4"></path>
                <circle id="Oval" stroke="#E85E5D" fill="#E85E5D" cx="460" cy="134" r="2"></circle>
                <circle id="Oval" stroke="#E85E5D" fill="#E85E5D" cx="437" cy="134" r="2"></circle>
                <path d="M409.723858,89.4244513 C411.263212,88.6099156 414.238537,95.4205454 415.196659,97.2075849 C415.835408,98.3989445 416.330036,100.129647 416.680544,102.399691 C414.223535,113.266371 412.481913,117.528909 411.455677,115.187305 C409.916324,111.674899 409.140133,110.374918 408.098138,107.887383 C407.056142,105.399848 408.184505,90.2389869 409.723858,89.4244513 Z" id="Path-35" fill="url(#linearGradient-2)"></path>
                <path d="M521.591334,75.2929768 C522.343393,76.8998592 522.491961,77.8355171 522.037038,78.0999506 C521.354654,78.4966009 520.8766,79.3426543 520.586536,80.0153711 C519.464361,82.6179141 519.228606,84.2827457 518.872133,84.2827457 C518.423518,84.2827457 517.84715,83.8269012 517.143029,82.9152121 L518.872133,76.9711349 L521.591334,75.2929768 Z" id="Path-39" fill="url(#linearGradient-1)"></path>
                <path d="M395.506875,67.2861203 C394.313509,66.5227375 393.604028,66.3682204 393.378431,66.8225691 C393.040036,67.504092 394.704734,69.3109499 395.085919,70.6996509 C395.467105,72.0883519 394.868672,73.9517405 395.506875,74.5767327 C395.932344,74.9933943 397.082326,74.9933943 398.956822,74.5767327 L395.506875,67.2861203 Z" id="Path-41" fill="url(#linearGradient-1)"></path>
                <path d="M442.16642,18.5392079 C442.255108,22.2179573 442.255108,24.9408634 442.16642,26.7079262 C442.141716,27.2001438 441.428079,28.6109908 440.46943,29.3171683 C439.80481,29.8067538 440.124359,31.1177791 441.428079,33.2502444 L443.748132,41.7949645 L453.952839,39.7934164 L459.253583,25.1478459 L448.607124,15.427017 L442.16642,18.5392079 Z" id="Path-43" fill="#D9E3F5"></path>
                <path d="M440.861656,22.5297801 C438.5046,23.4309321 436.278194,19.4365239 435.079596,17.250384 C433.880998,15.0642441 434.223986,11.7651974 435.679605,8.91629325 C437.135225,6.06738906 440.514857,4.34933674 444.578126,5.39821395 C448.641394,6.44709115 450.242917,11.0197403 451.605745,11.0197403 C461.597635,11.0197403 462.903448,17.7624395 462.903448,20.9958861 C462.903448,24.760174 459.454569,28.2333817 458.578146,32.1509869 C457.701723,36.0685921 459.130906,37.341577 458.578146,40.329952 C458.025386,43.318327 448.208467,48.5174561 445.102137,48.5174561 C441.995808,48.5174561 440.645619,42.6098723 440.098267,40.329952 C439.550916,38.0500317 440.098267,32.1509869 440.098267,32.1509869 C440.098267,32.1509869 442.159589,30.5715515 442.159589,31.7433907 C442.159589,32.9152299 442.500865,36.5690797 443.218713,36.9513435 C443.93656,37.3336073 445.203697,35.1643388 446.932905,35.4348122 C448.662113,35.7052857 449.567195,39.1316418 451.605745,38.0414927 C453.644296,36.9513435 457.135749,31.0648833 456.18551,26.384297 C455.235272,21.7037108 451.240611,20.5995665 447.89383,19.7577271 C444.547049,18.9158877 443.218713,21.628628 440.861656,22.5297801 Z" id="Path-42" fill="#0B284C"></path>
            </g>
        </g>
    </g>
</svg>