<?xml version="1.0" encoding="UTF-8"?>
<svg width="242px" height="258px" viewBox="0 0 242 258" version="1.1" xmlns="http://www.w3.org/2000/svg" xmlns:xlink="http://www.w3.org/1999/xlink">
    <!-- Generator: sketchtool 52 (66869) - http://www.bohemiancoding.com/sketch -->
    <title>4BB88BA8-7A51-49A4-AF59-33FAC5FC7714</title>
    <desc>Created with sketchtool.</desc>
    <defs>
    </defs>
    <g id="Icons/arrow_left" transform="translate(11.000000, 11.000000)">
                            <g id="Group-15">
                                <rect id="Rectangle-12" fill-opacity="0" fill="#FFFFFF" x="0" y="0" width="25" height="25"></rect>
                                <g id="left-arrow" transform="translate(9.000000, 5.000000)" fill="#0B80ED" fill-rule="nonzero">
                                    <path d="M7.09967846,14.8448276 C7.20257235,14.9482759 7.33118971,15 7.47266881,15 C7.61414791,15 7.74276527,14.9482759 7.84565916,14.8448276 C8.05144695,14.637931 8.05144695,14.3017241 7.84565916,14.0948276 L1.28617363,7.5 L7.84565916,0.905172414 C8.05144695,0.698275862 8.05144695,0.362068966 7.84565916,0.155172414 C7.63987138,-0.0517241379 7.30546624,-0.0517241379 7.09967846,0.155172414 L0.154340836,7.125 C-0.0514469453,7.33189655 -0.0514469453,7.66810345 0.154340836,7.875 L7.09967846,14.8448276 Z" id="Shape"></path>
                                </g>
                            </g>
                        </g>
</svg>